cpctelera/tools/sdcc-4.5.0/src/sim/ucsim/src/sims/stm8.src/test/port/test-in.vcd
$date
Wed Sep  5 21:01:53 2018
$end
$version
ucsim
$end
$timescale 1ns $end
$scope module ucsim_vcd_0 $end
$var wire 1 ! pc_pins.5 $end
$var wire 1 " pc_pins.2 $end
$upscope $end
$enddefinitions $end
$dumpvars
0!
0"
$end
#3875
1!
#4812
1"
#15937
0!
#16000
0"
#50250
1"
#59000
0"
#76312
1"
#85062
0"
#93562
1!
#93625
1"
#102812
0!
#102875
0"
#111062
1"
#119812
0"
#137125
1"
#145875
0"
#154500
1"
#171937
0"
#180437
1!
#180500
1"
#189687
0!
#189750
0"
#197937
1"
#206687
0"
#215312
1"
#232750
0"
#267312
1!
#267375
1"
#276562
0!
#276625
0"
#293500
1"
#302250
0"
#310875
1"
#319625
0"
#354187
1!
#354250
1"
