cpctelera/tools/sdcc-4.5.0/src/sim/ucsim/src/sims/stm8.src/test/vcd-out/baseline/test.vcd
$date
	Date is omitted in quiet mode
$end
$version
	ucsim
$end
$timescale 1ns $end
$scope module ucsim_vcd_0 $end
$var wire 1 ! loc1.0 $end
$var wire 1 " loc1.1 $end
$var wire 1 # loc1.2 $end
$var wire 1 $ loc1.3 $end
$var wire 1 % loc1.4 $end
$var wire 1 & loc1.5 $end
$var wire 1 ' loc1.6 $end
$var wire 1 ( loc1.7 $end
$var wire 8 ) loc2 $end
$upscope $end
$enddefinitions $end
#0
$dumpvars
0!
0"
0#
0$
0%
0&
0'
0(
b00000000 )
$end
#125
1!
0"
0#
0$
0%
0&
0'
0(
#250
1!
0"
0#
0$
0%
0&
0'
0(
#375
b00000001 )
#500
1!
1"
0#
0$
0%
0&
0'
0(
#625
0!
1"
0#
0$
0%
0&
0'
0(
#750
b00000010 )
#875
0!
1"
1#
0$
0%
0&
0'
0(
#1000
0!
0"
1#
0$
0%
0&
0'
0(
#1125
b00000011 )
#1250
0!
0"
1#
1$
0%
0&
0'
0(
#1375
0!
0"
0#
1$
0%
0&
0'
0(
#1500
b00000100 )
#1625
0!
0"
0#
1$
1%
0&
0'
0(
#1750
0!
0"
0#
0$
1%
0&
0'
0(
#1875
b00000101 )
#2000
0!
0"
0#
0$
1%
1&
0'
0(
#2125
0!
0"
0#
0$
0%
1&
0'
0(
#2250
b00000110 )
#2375
0!
0"
0#
0$
0%
1&
1'
0(
#2500
0!
0"
0#
0$
0%
0&
1'
0(
#2625
b00000111 )
#2750
0!
0"
0#
0$
0%
0&
1'
1(
#2875
0!
0"
0#
0$
0%
0&
0'
1(
#3000
b00001000 )
#3250
1!
0#
0%
0'
#3375
1!
0#
0%
0'
#3500
b00001001 )
#3625
1!
0#
0%
0'
#3750
0!
0#
0%
0'
#3875
b00001010 )
#4000
0!
1#
0%
0'
#4125
0!
1#
0%
0'
#4250
b00001011 )
#4375
0!
1#
0%
0'
#4500
0!
0#
0%
0'
#4625
b00001100 )
#4750
0!
0#
1%
0'
#4875
0!
0#
1%
0'
#5000
b00001101 )
#5125
0!
0#
1%
0'
#5250
0!
0#
0%
0'
#5375
b00001110 )
#5500
0!
0#
0%
1'
#5625
0!
0#
0%
1'
#5750
b00001111 )
#5875
0!
0#
0%
1'
#6000
0!
0#
0%
0'
#6125
b00010000 )
