cpctelera/tools/sdcc-4.5.0/src/sim/ucsim/src/sims/stm8.src/test/vcd-in/test.vcd
$date
	Sat Aug 22 00:57:06 2020
$end
$version
	ucsim
$end
$timescale 1ns $end
$scope module ucsim_vcd_0 $end
$var wire 1 ! loc1.0 $end
$var wire 1 " loc1.1 $end
$var wire 1 # loc1.2 $end
$var wire 1 $ loc1.3 $end
$var wire 1 % loc1.4 $end
$var wire 1 & loc1.5 $end
$var wire 1 ' loc1.6 $end
$var wire 1 ( loc1.7 $end
$var wire 8 ) loc2[7:0] $end
$upscope $end
$enddefinitions $end
$dumpvars
0!
0"
0#
0$
0%
0&
0'
0(
b00000000 )
$end
#0
1!
#250
b00000001 )
#375
1"
#500
0!
#625
b00000010 )
#750
1#
#875
0"
#1000
b00000011 )
#1125
1$
#1250
0#
#1375
b00000100 )
#1500
1%
#1625
0$
#1750
b00000101 )
#1875
1&
#2000
0%
#2125
b00000110 )
#2250
1'
#2375
0&
#2500
b00000111 )
#2625
1(
#2750
0'
#2875
b00001000 )
#3800
1!
#3375
b00001001 )
#3625
0!
#3750
b00001010 )
#3875
1#
#4125
b00001011 )
#4375
0#
#4500
b00001100 )
#4625
1%
#4875
b00001101 )
#5125
0%
#5250
b00001110 )
#5375
1'
#5625
b00001111 )
#5875
0'
#6000
b00010000 )
